[
    {
        "courseId" : 1,
        "courseName" : "Neurosurgery 101",
        "description" : "Introduction to Neurosurgery",
        "price" : 30000,
        "slots" : 15,
        "schedule" : "7:00-9:00 TTH",
        "instructor" : "Dr. Geum Choi",
        "isActive" : true,
        "enrollees": [
            {
    
                "enrollmentId" : 1, 
                "userId" : 1,
                "userName" : "songhwa",
                "isPaid" : true,
                "dateEnrolled" : "August 1997"
            }
        ]

    },
    {
        "courseId" : 2,
        "courseName" : "General Surgery 101",
        "description" : "Fundamentals of Surgery",
        "price" : 28000,
        "slots" : 30,
        "schedule" : "10:00-12:00 MWF",
        "instructor" : "Dr. Jeongwon So",
        "isActive" : true,
        "enrollees": [
            {
    
                "enrollmentId" : 2, 
                "userId" : 2,
                "userName" : "ikjun",
                "isPaid" : true,
                "dateEnrolled" : "August 1997"
            }
        ]

    }
]