[
    {
        "userId" : 1,
        "username" : "songhwa",
        "firstName" : "Songhwa",
        "lastName" : "Chae",
        "email" : "chaesonghwa@gmail.com",
        "password" : "iamanintellectual",
        "mobileNumber" : 639123456789,
        "isAdmin" : false,
        "enrollments": [
            {
    
                "enrollmentId" : 1, 
                "courseId" : 1,
                "courseName" : "Neurosurgery 101",
                "isPaid" : true,
                "dateEnrolled" : "August 1997"
            }
        ]

    },
    {
        "userId" : 2,
        "username" : "ikjun",
        "firstName" : "Ikjun",
        "lastName" : "Lee",
        "email" : "leeikjun@gmail.com",
        "password" : "ujuuniverse",
        "mobileNumber" : 639987654321,
        "isAdmin" : false,
        "enrollments": [
            {
                "enrollmentId" : 2, 
                "courseId" : 2,
                "courseName" : "General Surgery 101",
                "isPaid" : true,
                "dateEnrolled" : "August 1997"
            }
        ]


    }
]